{
  "content": [
    {
      "id": 2,
      "username": "Slava",
      "email": "alex@mail.com",
      "password": null
    },
    {
      "id": 4,
      "username": "test",
      "email": "ffffff@ggg.tt",
      "password": null
    },
    {
      "id": 9,
      "username": "vyacheslavvo",
      "email": "rrrrr@hhh.com",
      "password": null
    }
  ],
  "pageable": {
    "sort": {
      "sorted": true,
      "unsorted": false,
      "empty": false
    },
    "pageNumber": 0,
    "pageSize": 3,
    "offset": 0,
    "unpaged": false,
    "paged": true
  },
  "last": false,
  "totalPages": 3,
  "totalElements": 7,
  "sort": {
    "sorted": true,
    "unsorted": false,
    "empty": false
  },
  "first": true,
  "numberOfElements": 3,
  "number": 0,
  "size": 3,
  "empty": false
}